[
  {
    "login": "123",
    "password": "123"
  },
  {
    "login": "qwerty",
    "password": "qwerty"
  },
  {
    "login": "admin",
    "password": "admin"
  },
  {
    "login": "1",
    "password": "1"
  }
]
